<?xml version="1.0" encoding="utf-8"?>
<!-- Generator: Adobe Illustrator 16.0.0, SVG Export Plug-In . SVG Version: 6.00 Build 0)  -->
<!DOCTYPE svg PUBLIC "-//W3C//DTD SVG 1.1//EN" "http://www.w3.org/Graphics/SVG/1.1/DTD/svg11.dtd">
<svg version="1.1" id="Layer_1" xmlns="http://www.w3.org/2000/svg" xmlns:xlink="http://www.w3.org/1999/xlink" x="0px" y="0px"
	 width="232px" height="64px" viewBox="0 0 232 64" enable-background="new 0 0 232 64" xml:space="preserve">
<g>
	<g>
		<path fill="#777777" d="M177.038,26.276c-2.408,0-4.549,0.672-6.166,2.8c-0.793-2.128-2.658-2.8-4.923-2.8
			c-2.375,0-4.33,0.87-5.841,2.713l-0.083,0.071l0.306-2.359h-4.384c-1.244,0.052-2.246,0.961-2.458,2.155
			c-0.779,5.192-1.734,10.36-2.701,15.527h4.492c1.209-0.056,2.19-0.934,2.425-2.091c0.35-2.451,0.863-5.694,1.305-8.206
			c0.265-1.515,1.156-3.505,2.997-3.505c1.489,0,2.101,1.276,1.943,2.515c-0.085,0.674-1.896,11.34-1.896,11.34l4.331-0.053
			c1.279-0.061,2.31-1.034,2.466-2.287h0.002c0.368-2.485,0.875-5.827,1.32-8.292c0.262-1.446,1.226-3.223,2.961-3.223
			c1.558,0,2.051,1.383,1.89,2.658c-0.24,1.878-1.863,11.144-1.863,11.144h4.651c1.271-0.06,2.294-1.02,2.464-2.259
			c0.833-5.069,1.869-10.264,1.969-11.064C182.683,27.588,180.192,26.276,177.038,26.276z"/>
		<path fill="#777777" d="M228.074,26.701h-7.405c-1.313,1.701-2.629,3.401-3.841,5.139l-1.687-5.139h-8.045l4.39,8.399
			l-8.049,9.283h7.686l4.309-5.74l2.035,5.74h7.938c-1.594-3.082-3.187-6.131-4.63-9.283L228.074,26.701z"/>
	</g>
	<g>
		<path fill="#777777" d="M100.24,26.701c-1.149,0.046-2.096,0.827-2.4,1.89c-0.059-0.004-2.729,15.878-2.729,15.878l5.037-0.085
			c1.226-0.056,2.214-0.953,2.434-2.128c0.671-5.18,2.479-15.539,2.479-15.539L100.24,26.701z"/>
		<path fill="#777777" d="M101.386,20.322v0.022c-1.263,0.007-2.294,0.92-2.529,2.114l-0.296,1.797h6.766l0.709-3.934H101.386z"/>
	</g>
	<path fill="#777777" d="M122.598,26.276c-2.408,0-4.46,0.762-6.076,2.891c0.005-0.01-0.002-0.106-0.002-0.106l0.304-2.359h-4.827
		c-1.244,0.052-2.246,0.961-2.458,2.155c-0.779,5.192-2.491,15.527-2.491,15.527h4.894c1.28-0.061,2.31-1.034,2.466-2.287h0.002
		c0.368-2.485,0.94-5.784,1.32-8.292c0.243-1.604,1.376-3.223,3.112-3.223c1.558,0,1.899,1.383,1.738,2.658
		c-0.24,1.878-1.745,11.144-1.745,11.144h4.534c1.271-0.06,2.293-1.02,2.464-2.259c0.834-5.069,1.869-10.264,1.97-11.064
		C128.244,27.588,125.752,26.276,122.598,26.276z"/>
	<path fill="#777777" d="M90.94,38.849c-1.888,0.446-3.791,0.786-5.708,0.786c-4.04,0-6.848-2.163-6.3-6.486
		c0.45-3.543,3.312-7.653,9.301-7.653c1.876,0,3.667,0.425,5.419,0.85l1.073-5.355c-2.048-0.357-4.773-0.669-6.899-0.669
		c-7.973,0-15.25,4.287-16.343,12.901c-1.174,9.246,6.324,11.585,11.887,11.585c2.196,0,4.454-0.213,6.655-0.529
		C90.133,43.633,90.504,41.42,90.94,38.849z"/>
	<path fill="#777777" d="M146.628,39.342c-1.878,0.511-3.853,1.001-5.736,1.001c-2.338,0-4.518-0.992-4.165-3.754h12.188
		c0.291-0.887,0.474-1.771,0.586-2.66c0.625-4.924-2.217-7.653-8.028-7.653c-9.426,0-11.182,7.974-11.421,9.852
		c-0.885,6.98,3.824,8.681,9.458,8.681c2.051,0,4.168-0.247,6.238-0.671C146.047,42.539,146.338,40.939,146.628,39.342z
		 M141.12,30.007c1.911,0,2.715,1.194,2.42,3.503h-6.409C137.547,31.797,138.969,30.007,141.12,30.007z"/>
	<path fill="#777777" d="M201.261,39.342c-1.878,0.511-3.852,1.001-5.736,1.001c-2.338,0-4.518-0.992-4.166-3.754h12.189
		c0.29-0.887,0.472-1.771,0.585-2.66c0.626-4.924-2.216-7.653-8.027-7.653c-9.427,0-11.184,7.974-11.421,9.852
		c-0.886,6.98,3.823,8.681,9.458,8.681c2.052,0,4.167-0.247,6.238-0.671C200.679,42.539,200.97,40.939,201.261,39.342z
		 M195.751,30.007c1.912,0,2.716,1.194,2.421,3.503h-6.41C192.18,31.797,193.602,30.007,195.751,30.007z"/>
</g>
<path fill="#777777" d="M228.915,40.773c0.957,0,1.716,0.776,1.716,1.746c0,0.985-0.76,1.755-1.723,1.755
	c-0.956,0-1.731-0.77-1.731-1.755c0-0.97,0.776-1.746,1.731-1.746H228.915z M228.908,41.045c-0.769,0-1.396,0.66-1.396,1.474
	c0,0.831,0.628,1.483,1.403,1.483c0.777,0.007,1.398-0.652,1.398-1.476c0-0.822-0.621-1.482-1.398-1.482H228.908z M228.582,43.537
	h-0.309v-1.948c0.162-0.024,0.317-0.047,0.55-0.047c0.295,0,0.488,0.062,0.605,0.147c0.117,0.086,0.179,0.217,0.179,0.405
	c0,0.255-0.171,0.411-0.381,0.473v0.015c0.172,0.031,0.288,0.187,0.327,0.473c0.046,0.305,0.095,0.42,0.125,0.482h-0.326
	c-0.047-0.062-0.093-0.242-0.132-0.497c-0.046-0.248-0.169-0.342-0.419-0.342h-0.217V43.537z M228.582,42.457h0.226
	c0.255,0,0.474-0.093,0.474-0.333c0-0.171-0.124-0.341-0.474-0.341c-0.101,0-0.171,0.006-0.226,0.015V42.457z"/>
<g>
	
		<linearGradient id="SVGID_1_" gradientUnits="userSpaceOnUse" x1="1477.4077" y1="-1552.8745" x2="1463.0503" y2="-1552.8745" gradientTransform="matrix(2.0052 0 0 2.0052 -2905.3845 3160.0134)">
		<stop  offset="0" style="stop-color:#A6A8AA"/>
		<stop  offset="1" style="stop-color:#FFFFFF"/>
	</linearGradient>
	<path fill-rule="evenodd" clip-rule="evenodd" fill="url(#SVGID_1_)" d="M28.322,41.758l8.216,7.338
		C47.06,51.74,54.519,50.891,56.5,47.073c0.457-0.911,0.655-1.829,0.604-2.752C50.625,47.235,41.032,46.383,28.322,41.758
		L28.322,41.758z"/>
	
		<linearGradient id="SVGID_2_" gradientUnits="userSpaceOnUse" x1="1478.9868" y1="-1561.8809" x2="1471.9927" y2="-1561.8809" gradientTransform="matrix(2.0052 0 0 2.0052 -2905.3845 3160.0134)">
		<stop  offset="0" style="stop-color:#A6A8AA"/>
		<stop  offset="1" style="stop-color:#FFFFFF"/>
	</linearGradient>
	<path fill-rule="evenodd" clip-rule="evenodd" fill="url(#SVGID_2_)" d="M58.827,24.238c-1.042,2.856-5.232,3.775-12.573,2.738
		l5.545,5.043c6.147,0.143,8.955-1.553,8.412-5.086C60.145,25.969,59.688,25.063,58.827,24.238L58.827,24.238z"/>
	
		<linearGradient id="SVGID_3_" gradientUnits="userSpaceOnUse" x1="1473.064" y1="-1572.3589" x2="1465.0034" y2="-1572.3589" gradientTransform="matrix(2.0052 0 0 2.0052 -2905.3845 3160.0134)">
		<stop  offset="0" style="stop-color:#A6A8AA"/>
		<stop  offset="1" style="stop-color:#FFFFFF"/>
	</linearGradient>
	<path fill-rule="evenodd" clip-rule="evenodd" fill="url(#SVGID_3_)" d="M48.401,10.645c-5.432-4.705-10.155-7.32-14.179-7.86
		c-1.002,0-1.984,0.589-1.984,1.661c0,3.482,8.696,7.004,13.05,7.004C46.311,11.509,47.717,11.272,48.401,10.645z"/>
	
		<linearGradient id="SVGID_4_" gradientUnits="userSpaceOnUse" x1="1471.7935" y1="-1566.1123" x2="1454.4204" y2="-1566.1123" gradientTransform="matrix(2.0052 0 0 2.0052 -2905.3845 3160.0134)">
		<stop  offset="0" style="stop-color:#A6A8AA"/>
		<stop  offset="1" style="stop-color:#FFFFFF"/>
	</linearGradient>
	<path fill-rule="evenodd" clip-rule="evenodd" fill="url(#SVGID_4_)" d="M45.854,31.646l-7.243-6.451
		C26.042,21.075,13.124,12.1,15.586,7.682c-1.798-0.238-3.29,0.872-4.475,3.368C9.488,16.834,29.326,29.356,45.854,31.646
		L45.854,31.646z"/>
	
		<linearGradient id="SVGID_5_" gradientUnits="userSpaceOnUse" x1="1450.3491" y1="-1562.1709" x2="1479.1177" y2="-1562.1709" gradientTransform="matrix(2.0052 0 0 2.0052 -2905.3845 3160.0134)">
		<stop  offset="0" style="stop-color:#CA0088"/>
		<stop  offset="0.6094" style="stop-color:#32338E"/>
		<stop  offset="1" style="stop-color:#00ACEC"/>
	</linearGradient>
	<path fill="url(#SVGID_5_)" d="M60.156,26.872c1.026,4.426-0.114,12.638-2.047,16.812c-0.726,1.125-3.277,2.865-8.995,2.865
		c-16.461,0-46.26-13.158-46.26-23.807C3.782,18.719,7.704,12.298,12.876,8.55c-1.102,0.985-1.376,2.024-1.376,2.847
		c0,8.241,25.256,20.387,40.437,20.387C55.594,31.784,60.156,31.096,60.156,26.872z"/>
	
		<linearGradient id="SVGID_6_" gradientUnits="userSpaceOnUse" x1="1456.2583" y1="-1568.3564" x2="1478.4351" y2="-1568.3564" gradientTransform="matrix(2.0052 0 0 2.0052 -2905.3845 3160.0134)">
		<stop  offset="0" style="stop-color:#00ACEC"/>
		<stop  offset="0.2461" style="stop-color:#00ACEC"/>
		<stop  offset="0.5977" style="stop-color:#32A457"/>
		<stop  offset="0.9102" style="stop-color:#FFF12D"/>
		<stop  offset="1" style="stop-color:#FFF12D"/>
	</linearGradient>
	<path fill="url(#SVGID_6_)" d="M44.809,5.854c7.473,3.848,12.379,10.896,14.335,17.041c0.373,3.676-2.869,4.978-7.426,4.978
		c-14.067,0-37.015-11.36-37.015-18.749c0.012-0.83,0.417-1.671,1.229-2.546c7.122-4.552,16.669-4.843,20.542-3.352
		C34.61,2.702,32.64,3.163,32.64,4.538c0,1.993,7.147,6.515,13.138,6.515c0.553,0,2.7,0.032,2.7-1.422
		C48.478,8.448,46.634,6.905,44.809,5.854z"/>
	
		<linearGradient id="SVGID_7_" gradientUnits="userSpaceOnUse" x1="1449.6108" y1="-1553.9805" x2="1476.9077" y2="-1553.9805" gradientTransform="matrix(2.0052 0 0 2.0052 -2905.3845 3160.0134)">
		<stop  offset="0" style="stop-color:#FFF12D"/>
		<stop  offset="0.1172" style="stop-color:#FFF12D"/>
		<stop  offset="0.4023" style="stop-color:#CC2128"/>
		<stop  offset="0.8672" style="stop-color:#CA0088"/>
		<stop  offset="1" style="stop-color:#CA0088"/>
	</linearGradient>
	<path fill="url(#SVGID_7_)" d="M1.827,26.366c-0.71,6.348,11.61,14.352,24.836,19.256c12.253,4.559,25.293,6.471,29.448,1.947
		C48.044,59.834,35.332,63.425,24.188,60.74C10.353,57.411-1.067,44.422,1.827,26.366z"/>
	<path fill-rule="evenodd" clip-rule="evenodd" fill="#FFFFFF" d="M18.389,5.836C18.575,5.751,18.671,5.779,18.6,5.9
		c-0.07,0.12-0.351,0.44-0.533,0.533c0,0-1.674,0.827-1.749,0.827l0.196-0.355c0.1-0.176,0.333-0.386,0.516-0.469L18.389,5.836z
		 M18.267,6.844l0.006,0.296c0.004,0.203-0.143,0.447-0.326,0.542L16.492,8.44c-0.178,0.093-0.327,0.075-0.327-0.051
		c0-0.125,0.149-0.529,0.327-0.627C16.492,7.762,17.61,7.151,18.267,6.844z M18.098,8.417c0.183-0.098,0.395-0.028,0.477,0.158
		c0,0-0.01,0.017,0.047,0.157c0.057,0.14-0.042,0.34-0.218,0.437c0,0-1.508,0.848-1.787,1.021l-0.209-0.418
		c-0.09-0.183-0.021-0.416,0.153-0.521L18.098,8.417z M17.98,11.645c-0.168,0.114-0.392,0.084-0.498-0.062
		c-0.104-0.144-0.272-0.649-0.096-0.755l1.472-0.897c0.173-0.106,0.402-0.072,0.506,0.073c0.1,0.146,0.274,0.579,0.104,0.692
		L17.98,11.645z M19.328,13.651l-0.902-0.9c0.075,0,1.733-1.214,1.733-1.214c0.161-0.118,0.408-0.091,0.543,0.058l0.31,0.306
		c0.149,0.135,0.139,0.345-0.027,0.468C20.985,12.368,19.895,13.176,19.328,13.651z M21.787,15.212
		c-0.153,0.132-0.408,0.146-0.57,0.021l-0.592-0.417c-0.157-0.128-0.157-0.337,0-0.468l1.312-1.104c0.159-0.131,0.414-0.131,0.571,0
		l0.484,0.4c0.155,0.134,0.155,0.359,0.006,0.489L21.787,15.212z M24.33,16.998c-0.142,0.145-0.404,0.169-0.569,0.057l-0.743-0.486
		c-0.167-0.119-0.185-0.332-0.041-0.471l1.202-1.14c0.147-0.141,0.404-0.162,0.571-0.044l0.965,0.661
		C25.536,15.798,24.33,16.998,24.33,16.998z M26.811,16.648c0.129-0.152,0.382-0.191,0.557-0.085l0.741,0.447
		c0.178,0.096,0.229,0.31,0.106,0.475l-0.932,1.275c-0.113,0.166-0.353,0.224-0.525,0.125l-1.253-0.693
		C25.789,17.839,26.811,16.648,26.811,16.648z M30.544,20.409c-0.094,0.183-0.326,0.258-0.51,0.175l-1.038-0.538
		c-0.186-0.086-0.249-0.295-0.141-0.466l0.88-1.336c0.112-0.168,0.349-0.231,0.531-0.135c0,0,1.106,0.58,1.175,0.58L30.544,20.409z
		 M33.958,21.901c-0.084,0.184-0.308,0.269-0.494,0.195l-1.076-0.486c-0.188-0.078-0.267-0.286-0.179-0.473l0.687-1.359
		c0.088-0.184,0.312-0.272,0.502-0.197l0.986,0.414c0.188,0.077,0.276,0.294,0.194,0.481L33.958,21.901z M36.238,21.075
		c0.072-0.191,0.28-0.279,0.466-0.199l0.938,0.326c0.194,0.067,0.308,0.282,0.257,0.475l-0.414,1.468
		c-0.053,0.195-0.253,0.304-0.449,0.245l-1.104-0.37c-0.192-0.062-0.29-0.277-0.226-0.464L36.238,21.075z M47.246,23.54
		c0.198,0.031,0.367,0.223,0.375,0.427l0.079,2.014c-0.149,0-1.218-0.171-1.218-0.171c-0.208-0.029-0.371-0.224-0.371-0.423v-1.662
		c0-0.203,0.163-0.342,0.371-0.312L47.246,23.54z M49.966,23.77c0.204,0.018,0.396,0.197,0.43,0.396c0,0,0.313,1.966,0.313,2.044
		l-1.059-0.058c-0.204-0.013-0.386-0.187-0.414-0.385l-0.186-1.672c-0.021-0.203,0.122-0.358,0.327-0.346L49.966,23.77z
		 M52.378,23.749c0.2-0.012,0.408,0.139,0.457,0.339l0.428,1.686c0.043,0.195-0.083,0.372-0.284,0.389l-0.514,0.04
		c-0.2-0.002-0.402-0.163-0.445-0.364c0,0-0.384-1.822-0.384-2.047L52.378,23.749z M57.088,24.789
		c0.072,0.188-0.02,0.406-0.208,0.486c0,0-0.035,0-0.182,0.063c-0.149,0.065-0.324-0.038-0.385-0.233l-0.557-1.616
		c-0.063-0.194-0.004-0.408,0.127-0.47c0.135-0.062,0.531-0.041,0.602,0.151L57.088,24.789z M58.044,24.383
		c-0.107,0.12-0.259,0.063-0.341-0.124c0,0-0.789-1.791-0.789-1.867c0-0.075,0.183-0.271,0.183-0.271
		c0.141-0.149,0.319-0.125,0.406,0.06l0.674,1.504C58.252,23.875,58.15,24.27,58.044,24.383z M57.821,21.635
		c-0.075-0.191-0.114-0.438-0.084-0.556c0.025-0.117,0.192-0.209,0.276-0.024l0.6,1.357c0.084,0.187,0.122,0.498,0.077,0.698
		c-0.043,0.229-0.138,0.24-0.222,0.051L57.821,21.635z M40.597,24.532c0.19,0.062,0.373-0.055,0.398-0.256l0.255-1.615
		c0.029-0.199-0.106-0.406-0.306-0.455l-0.941-0.259c-0.194-0.054-0.39,0.062-0.436,0.263l-0.329,1.544
		c-0.04,0.196,0.08,0.412,0.28,0.474L40.597,24.532z M44.024,25.375c0.202,0.045,0.38-0.088,0.4-0.287l0.09-1.67
		c0.018-0.201-0.139-0.399-0.339-0.434l-0.885-0.156c-0.2-0.045-0.378,0.085-0.394,0.287l-0.129,1.371l-0.035,0.445
		c0,0.037,0.167,0.187,0.361,0.224L44.024,25.375z M55.164,25.828c0.202-0.037,0.318-0.231,0.259-0.429l-0.541-1.693
		c-0.061-0.197-0.241-0.322-0.406-0.281c-0.165,0.043-0.565,0.314-0.52,0.511l0.426,1.687c0.053,0.197,0.245,0.325,0.433,0.285
		L55.164,25.828z M54.57,44.625c0.2-0.029,0.418-0.217,0.475-0.411l0.465-1.56c0.051-0.196-0.065-0.315-0.269-0.26l-0.557,0.187
		c-0.2,0.052-0.41,0.252-0.462,0.444l-0.465,1.401c-0.063,0.191,0.053,0.327,0.257,0.289L54.57,44.625z M44.425,44.751
		c0.202,0.02,0.416-0.123,0.478-0.316l0.508-1.483c0.057-0.195-0.059-0.37-0.259-0.392l-1.376-0.203
		c-0.2-0.033-0.421,0.096-0.49,0.286l-0.484,1.483c-0.069,0.195,0.047,0.377,0.245,0.407L44.425,44.751z M40.934,41.859
		c0.2,0.04,0.308,0.235,0.243,0.43l-0.525,1.484c-0.064,0.189-0.278,0.31-0.479,0.266l-1.518-0.309
		c-0.198-0.048-0.306-0.243-0.243-0.435l0.518-1.55c0.063-0.192,0.276-0.315,0.475-0.269L40.934,41.859z M58.123,43.013
		c-0.141,0.147-0.212,0.101-0.153-0.09l0.459-1.477c0.061-0.195,0.217-0.476,0.354-0.631l0.237-0.231
		c0.129-0.157,0.163-0.146,0.1,0.053l-0.457,1.396c-0.07,0.204-0.178,0.585-0.313,0.735L58.123,43.013z M57.445,41.763
		c0.186-0.077,0.294,0.016,0.237,0.211l-0.462,1.475c-0.059,0.19-0.263,0.412-0.449,0.492c-0.186,0.077-0.584,0.082-0.533-0.112
		l0.473-1.476c0.053-0.198,0.263-0.403,0.453-0.463L57.445,41.763z M50.856,45.137c-0.208,0.008-0.325-0.144-0.265-0.335
		l0.467-1.473c0.057-0.193,0.269-0.364,0.477-0.373l0.912-0.097c0.204-0.021,0.322,0.123,0.261,0.315L52.18,44.73
		c-0.059,0.192-0.28,0.356-0.484,0.368L50.856,45.137z M47.168,45.019c-0.204-0.004-0.312-0.17-0.243-0.361l0.473-1.477
		c0.059-0.193,0.276-0.338,0.476-0.319l1.112,0.077c0.202,0.017,0.328,0.197,0.275,0.392l-0.436,1.411
		c-0.062,0.191-0.278,0.345-0.484,0.337L47.168,45.019z M34.001,42.439c-0.194-0.062-0.3-0.26-0.226-0.452l0.553-1.451
		c0.069-0.189,0.285-0.298,0.482-0.238l1.624,0.468c0.19,0.057,0.294,0.255,0.22,0.447l-0.565,1.489
		c-0.07,0.188-0.288,0.295-0.482,0.237L34.001,42.439z M29.35,40.934c-0.19-0.074-0.29-0.287-0.229-0.481l0.547-1.488
		c0.066-0.195,0.278-0.294,0.466-0.222l1.642,0.647c0.188,0.071,0.292,0.28,0.217,0.471l-0.551,1.445
		c-0.063,0.191-0.278,0.29-0.469,0.228L29.35,40.934z M27.112,37.642c0.188,0.079,0.28,0.298,0.212,0.489
		c0,0-0.622,1.608-0.622,1.761l-1.986-0.768c-0.19-0.074-0.283-0.291-0.204-0.476l0.602-1.471c0.071-0.191,0.29-0.281,0.482-0.207
		L27.112,37.642z M20.696,35.122c0.075-0.188,0.285-0.273,0.473-0.183l1.52,0.72c0.179,0.096,0.263,0.326,0.185,0.512l-0.614,1.43
		c-0.083,0.188-0.298,0.265-0.48,0.174l-1.459-0.707c-0.182-0.082-0.272-0.31-0.2-0.496L20.696,35.122z M18.404,33.468
		c0.176,0.101,0.259,0.335,0.184,0.526l-0.557,1.417c-0.077,0.189-0.282,0.262-0.457,0.165l-1.39-0.766
		c-0.176-0.102-0.255-0.337-0.172-0.522l0.605-1.348c0.084-0.191,0.298-0.265,0.479-0.174L18.404,33.468z M14.579,31.268
		c0.168,0.111,0.241,0.352,0.157,0.539l-0.6,1.359c-0.08,0.182-0.286,0.238-0.451,0.12l-1.122-0.754
		c-0.163-0.114-0.233-0.37-0.149-0.55l0.602-1.32c0.084-0.183,0.291-0.24,0.459-0.13L14.579,31.268z M10.765,30.785
		c-0.08,0.187-0.288,0.24-0.449,0.12L9.4,30.166c-0.153-0.134-0.202-0.393-0.116-0.576L9.9,28.263
		c0.092-0.179,0.298-0.221,0.455-0.096l0.882,0.658c0.163,0.122,0.231,0.373,0.145,0.557L10.765,30.785z M8.531,26.473
		c0.139,0.141,0.187,0.41,0.1,0.593l-0.672,1.437c-0.079,0.187-0.271,0.226-0.422,0.089l-0.661-0.71
		c-0.131-0.156-0.169-0.435-0.081-0.621l0.631-1.32c0.088-0.183,0.275-0.215,0.42-0.074L8.531,26.473z M5.667,23.634
		c0.09-0.184,0.261-0.2,0.384-0.035l0.332,0.51c0.127,0.161,0.151,0.443,0.062,0.626l-0.674,1.433
		c-0.075,0.187-0.233,0.2-0.345,0.029l-0.386-0.545c-0.112-0.169-0.135-0.458-0.053-0.647L5.667,23.634z M4.351,23.992
		c-0.081,0.186-0.231,0.191-0.332,0.011l-0.104-0.25c-0.094-0.179-0.096-0.477-0.008-0.665l0.665-1.432
		c0.084-0.188,0.228-0.188,0.32-0.008l0.135,0.293c0.098,0.181,0.104,0.479,0.014,0.66L4.351,23.992z M4.406,19.618
		c0.092-0.18,0.153-0.163,0.131,0.039L4.498,20.05c0,0.201-0.069,0.52-0.153,0.705l-0.824,1.766c0-0.448,0.041-0.907,0.041-0.907
		c0.021-0.203,0.108-0.516,0.196-0.701L4.406,19.618z M52.817,50.788c0.125-0.162,0.363-0.345,0.523-0.408
		c0.167-0.06,0.43-0.06,0.304,0.101l-1.037,1.404c-0.129,0.158-0.389,0.349-0.573,0.433l-0.496,0.206
		C51.539,52.448,52.817,50.788,52.817,50.788z M50.609,52.574c-0.119,0.162-0.38,0.329-0.58,0.366l-0.531,0.117
		c-0.2,0.036-0.269-0.07-0.149-0.233l1.067-1.429c0.125-0.166,0.382-0.339,0.581-0.39l0.564-0.12
		c0.194-0.047,0.265,0.043,0.143,0.208L50.609,52.574z M47.917,53.049c-0.118,0.166-0.386,0.308-0.584,0.318l-0.839,0.04
		c-0.206,0.01-0.278-0.117-0.159-0.28l0.932-1.35c0.117-0.167,0.374-0.321,0.574-0.347l0.922-0.086
		c0.206-0.012,0.28,0.112,0.159,0.282L47.917,53.049z M34.814,52.081c-0.196-0.051-0.282-0.231-0.184-0.41l0.778-1.453
		c0.098-0.18,0.337-0.289,0.535-0.245l1.455,0.368c0.206,0.039,0.286,0.225,0.186,0.401l-0.769,1.388
		c-0.094,0.173-0.343,0.282-0.545,0.242L34.814,52.081z M30.444,50.896c-0.192-0.053-0.282-0.249-0.192-0.431l0.669-1.402
		c0.084-0.183,0.317-0.286,0.514-0.231l1.539,0.436c0.192,0.054,0.285,0.198,0.2,0.322l-0.665,1.402
		c-0.086,0.18-0.163,0.349-0.163,0.367c0,0.019-0.233,0.064-0.427,0.008L30.444,50.896z M23.875,46.221
		c0.19,0.074,0.282,0.295,0.212,0.482l-0.563,1.413c-0.076,0.191-0.29,0.288-0.479,0.217l-1.504-0.62
		c-0.184-0.082-0.272-0.303-0.208-0.499l0.508-1.407c0.067-0.196,0.275-0.29,0.463-0.212L23.875,46.221z M19.206,46.229
		c-0.059,0.197-0.255,0.287-0.445,0.201l-1.363-0.653c-0.185-0.09-0.291-0.333-0.239-0.529l0.41-1.465
		c0.057-0.197,0.255-0.285,0.438-0.197l1.431,0.666c0.188,0.083,0.296,0.312,0.239,0.508L19.206,46.229z M15.318,42.124
		c0.178,0.097,0.276,0.335,0.228,0.531l-0.416,1.544c-0.051,0.196-0.237,0.277-0.417,0.178l-1.237-0.689
		c-0.17-0.105-0.28-0.347-0.235-0.544l0.441-1.899L15.318,42.124z M11.561,39.849c0.176,0.107,0.28,0.356,0.235,0.555l-0.373,1.608
		c-0.042,0.197-0.214,0.27-0.385,0.158L10,41.468c-0.167-0.117-0.274-0.373-0.241-0.572l0.298-1.639
		c0.037-0.199,0.202-0.266,0.368-0.148L11.561,39.849z M8.233,37.472c0.157,0.119,0.265,0.384,0.231,0.583l-0.3,1.695
		c-0.025,0.205-0.176,0.26-0.335,0.13l-0.841-0.702c-0.155-0.134-0.265-0.403-0.243-0.606L7,36.946
		c0.029-0.2,0.188-0.259,0.351-0.136L8.233,37.472z M5.778,35.456c0,0.149-0.251,2.039-0.251,2.039
		c-0.025,0.205-0.17,0.255-0.318,0.118l-0.598-0.62c-0.144-0.141-0.241-0.425-0.218-0.626l0.194-1.708
		c0.024-0.2,0.163-0.248,0.304-0.105L5.778,35.456z M1.806,33.08c-0.092-0.18-0.149-0.496-0.127-0.7l0.155-1.67
		c0.014-0.202,0.114-0.223,0.21-0.047c0.094,0.177,0.231,0.564,0.208,0.764l-0.198,1.781c-0.02,0.204-0.106,0.234-0.188,0.065
		C1.784,33.107,1.806,33.08,1.806,33.08z M2.841,34.801c-0.116-0.17-0.196-0.471-0.176-0.671l0.212-1.692
		c0.027-0.203,0.143-0.231,0.267-0.072l0.29,0.409c0.137,0.152,0.226,0.44,0.204,0.645L3.47,35.235
		c-0.012,0.205-0.127,0.241-0.249,0.084L2.841,34.801z M27.479,49.994c0.196,0.072,0.414-0.029,0.492-0.218l0.668-1.404
		c0.077-0.189-0.012-0.396-0.206-0.459l-1.612-0.589c-0.19-0.077-0.402,0.016-0.475,0.212l-0.567,1.488
		c-0.07,0.188,0.027,0.388,0.222,0.447L27.479,49.994z M40.336,53.085c0.2,0.023,0.451-0.104,0.564-0.27l0.871-1.394
		c0.096-0.178,0.018-0.34-0.182-0.361l-1.347-0.207c-0.204-0.033-0.447,0.086-0.545,0.265l-0.843,1.462
		c-0.104,0.175-0.02,0.337,0.184,0.358L40.336,53.085z M44.095,53.393c0.204,0.017,0.455-0.108,0.568-0.278l0.912-1.409
		c0.112-0.166,0.041-0.314-0.165-0.326l-1.155-0.03c-0.202-0.009-0.457,0.123-0.557,0.297l-0.9,1.365
		c-0.114,0.163-0.038,0.32,0.165,0.34L44.095,53.393z M8.267,50.644c-0.075,0-0.508-0.477-0.508-0.477
		c-0.135-0.152-0.332-0.422-0.427-0.601L6.41,47.883c-0.098-0.174-0.066-0.198,0.067-0.041L6.8,48.126
		c0.141,0.145,0.328,0.412,0.414,0.596C7.214,48.722,7.651,49.678,8.267,50.644z M9.959,51.978c0.102,0.175,0.062,0.205-0.088,0.068
		L9.318,51.61c-0.167-0.116-0.371-0.366-0.455-0.553l-0.602-1.354c-0.083-0.187-0.01-0.246,0.159-0.133l0.375,0.249
		c0.163,0.123,0.369,0.373,0.457,0.555L9.959,51.978z M11.542,53.257c-0.171-0.113-0.383-0.354-0.475-0.537l-0.675-1.421
		c-0.076-0.192,0-0.253,0.173-0.146l0.657,0.438c0.167,0.114,0.353,0.368,0.414,0.562l0.542,1.314
		c0.08,0.187,0.018,0.236-0.147,0.109L11.542,53.257z M13.984,53.259c0.179,0.096,0.361,0.335,0.408,0.534l0.228,1.017
		c0.061,0.188-0.031,0.266-0.211,0.174l-0.612-0.349c-0.175-0.1-0.376-0.335-0.453-0.53l-0.376-1.183
		c-0.061-0.194,0.037-0.268,0.212-0.163L13.984,53.259z M20.341,56.286c0.188,0.083,0.292,0.306,0.229,0.502l-0.192,0.632
		c-0.059,0.191-0.263,0.292-0.445,0.217l-0.749-0.283c-0.186-0.079-0.326-0.312-0.313-0.515l0.086-0.756
		c0.034-0.196,0.212-0.299,0.4-0.216L20.341,56.286z M23.683,57.54c0.192,0.059,0.263,0.245,0.151,0.413l-0.449,0.642
		c-0.12,0.166-0.373,0.238-0.567,0.171l-0.733-0.253c-0.194-0.068-0.278-0.27-0.188-0.457l0.32-0.665
		c0.086-0.186,0.31-0.275,0.502-0.203L23.683,57.54z M25.422,58.512c0.129-0.163,0.393-0.252,0.59-0.198l1.008,0.28
		c0.198,0.055,0.237,0.208,0.088,0.35l-0.657,0.552c-0.151,0.139-0.438,0.208-0.635,0.159l-0.759-0.236
		c-0.194-0.059-0.247-0.231-0.109-0.383L25.422,58.512z M30.326,59.377c0.204,0.037,0.229,0.151,0.057,0.265l-1.094,0.613
		c-0.181,0.087-0.492,0.131-0.69,0.085l-0.633-0.14c-0.198-0.043-0.22-0.174-0.047-0.282l0.776-0.551
		c0.155-0.132,0.449-0.204,0.649-0.175L30.326,59.377z M30.736,60.76c-0.202-0.027-0.214-0.122-0.025-0.203l1.233-0.647
		c0.182-0.092,0.345-0.168,0.367-0.168c0.023,0,0.198,0.024,0.404,0.059l0.753,0.116c0.2,0.033,0.212,0.124,0.025,0.2l-1.821,0.752
		C31.521,60.869,30.736,60.76,30.736,60.76z M34.691,60.988c-0.188,0.069-0.512,0.117-0.716,0.104l-0.735-0.04
		c-0.2-0.019-0.211-0.091-0.02-0.162l1.729-0.613c0.183-0.09,0.5-0.148,0.702-0.141l0.539,0.032
		c0.204,0.014,0.224,0.098,0.042,0.192L34.691,60.988z M37.838,60.192c0.38,0,0.912-0.043,0.912-0.043
		c0.206-0.018,0.214,0.025,0.023,0.09l-1.947,0.655c-0.192,0.065-0.606,0.169-0.81,0.179l-0.212,0.004
		c-0.206,0.009-0.214-0.043-0.027-0.114L37.838,60.192z M16.428,56.063c-0.183-0.085-0.367-0.318-0.41-0.518l-0.127-0.923
		c-0.016-0.204,0.122-0.29,0.302-0.19l0.855,0.396c0.178,0.098,0.317,0.342,0.31,0.544l0.038,0.755
		c0.008,0.2-0.143,0.299-0.33,0.217L16.428,56.063z M60.462,31.792c0.018-0.45-0.029-2.108-0.029-2.108
		c-0.004-0.217-0.03-0.349-0.053-0.209c-0.016,0.148-0.102,0.732-0.086,0.937l0.049,1.224l0.037,0.408
		C60.38,32.056,60.433,31.911,60.462,31.792z M59.668,31.021c0.084-0.127,0.165-0.062,0.175,0.141l0.104,1.366
		c0.012,0.205-0.045,0.487-0.129,0.633c-0.084,0.144-0.451,0.322-0.451,0.125l-0.059-1.446
		C59.295,31.635,59.584,31.142,59.668,31.021z M56.221,34.997c0.198-0.037,0.363-0.231,0.363-0.437v-1.517
		c0-0.205-0.165-0.341-0.363-0.303l-0.479,0.086c-0.2,0.041-0.367,0.239-0.367,0.442v1.516c0,0.206,0.167,0.341,0.367,0.306
		L56.221,34.997z M53.578,35.41c0.204-0.018,0.373-0.192,0.389-0.402l0.043-1.516c0.008-0.203-0.155-0.356-0.357-0.338l-0.769,0.017
		c-0.2,0.018-0.371,0.194-0.382,0.398l-0.04,1.521c-0.012,0.2,0.153,0.366,0.351,0.366L53.578,35.41z M42.823,34.47
		c0.2,0.047,0.392-0.083,0.427-0.279l0.314-1.531c0.037-0.2-0.092-0.391-0.291-0.426l-1.302-0.252
		c-0.2-0.034-0.408,0.101-0.457,0.296l-0.351,1.467c-0.045,0.195,0.079,0.39,0.276,0.432L42.823,34.47z M38.615,33.463
		c0.196,0.059,0.392-0.048,0.439-0.248l0.414-1.465c0.059-0.196-0.059-0.396-0.255-0.451l-1.395-0.405
		c-0.192-0.055-0.402,0.057-0.458,0.252l-0.418,1.417c-0.051,0.196,0.067,0.407,0.255,0.472L38.615,33.463z M9.512,12.189
		c-0.147,0.145-0.28,0.259-0.3,0.268c-0.014,0.004,0.047-0.116,0.145-0.295c0,0,0.139-0.278,0.235-0.451
		c0.098-0.174,0.302-0.422,0.453-0.555l0.794-0.651c0.157-0.13,0.214-0.135,0.131-0.012c-0.081,0.124-0.347,0.639-0.498,0.772
		L9.512,12.189z M10.253,12.103c0.149-0.14,0.251-0.119,0.233,0.047c-0.021,0.162-0.086,0.712-0.233,0.859l-1.127,1.059
		c-0.145,0.14-0.263,0.093-0.263-0.111v-0.162c0-0.205,0.118-0.488,0.263-0.628L10.253,12.103z M9.467,16.207
		c0-0.075-0.233-0.633-0.233-0.633c-0.081-0.192-0.027-0.461,0.11-0.611l1-1.043c0.143-0.148,0.333-0.12,0.433,0.056
		c0,0,0.271,0.504,0.271,0.577L9.467,16.207z M11.073,17.887c-0.139,0.149-0.347,0.142-0.467-0.025l-0.316-0.457
		c-0.122-0.165-0.105-0.42,0.032-0.562l1.07-1.121c0.141-0.145,0.353-0.129,0.463,0.042l0.332,0.445
		c0.12,0.166,0.1,0.419-0.038,0.567L11.073,17.887z M13.012,20.058c-0.129,0.157-0.349,0.166-0.496,0.022l-0.531-0.526
		c-0.139-0.146-0.149-0.388-0.014-0.541l1.01-1.178c0.137-0.152,0.363-0.155,0.514-0.01l0.789,0.791
		C14.208,18.616,13.012,20.058,13.012,20.058z M15.251,19.947c0.131-0.153,0.365-0.174,0.526-0.046l0.706,0.58
		c0.161,0.131,0.187,0.374,0.069,0.534l-0.922,1.282c-0.115,0.166-0.343,0.195-0.502,0.065l-1.07-0.892
		C14.057,21.396,15.251,19.947,15.251,19.947z M18.704,24.471c-0.114,0.172-0.339,0.212-0.508,0.094l-0.971-0.707
		c-0.17-0.118-0.209-0.344-0.096-0.508l0.865-1.272c0.109-0.169,0.341-0.214,0.514-0.102l0.957,0.649
		c0.175,0.109,0.224,0.34,0.112,0.511L18.704,24.471z M22.296,26.564c-0.102,0.178-0.331,0.241-0.51,0.145l-1.163-0.691
		c-0.175-0.103-0.231-0.327-0.124-0.502l0.812-1.327c0.108-0.173,0.343-0.229,0.516-0.122l1.09,0.678
		c0.179,0.101,0.239,0.329,0.141,0.504L22.296,26.564z M26.811,26.665c0.192,0.078,0.271,0.294,0.184,0.478l-0.741,1.435
		c-0.084,0.184-0.3,0.261-0.486,0.172l-1.363-0.652c-0.182-0.087-0.257-0.309-0.163-0.486l0.735-1.413
		c0.092-0.185,0.317-0.259,0.504-0.175L26.811,26.665z M30.805,28.467c0.184,0.079,0.278,0.302,0.208,0.492l-0.568,1.418
		c-0.069,0.187-0.282,0.278-0.471,0.2l-1.425-0.608c-0.188-0.083-0.271-0.303-0.183-0.483l0.655-1.415
		c0.088-0.185,0.31-0.272,0.498-0.194L30.805,28.467z M35.007,29.995c0.192,0.067,0.296,0.275,0.223,0.471l-0.496,1.412
		c-0.068,0.187-0.286,0.295-0.48,0.235l-1.477-0.459c-0.196-0.057-0.294-0.262-0.226-0.452l0.57-1.492
		c0.073-0.188,0.285-0.289,0.471-0.213L35.007,29.995z M47.399,32.9c0,0.448-0.185,1.886-0.185,1.886
		c-0.018,0.204-0.206,0.35-0.408,0.327l-1.224-0.141c-0.206-0.024-0.343-0.207-0.322-0.408l0.271-1.526
		c0.033-0.204,0.229-0.346,0.427-0.316L47.399,32.9z M50.564,33.182c0.206,0.011,0.363,0.183,0.347,0.387l-0.09,1.521
		c-0.023,0.2-0.202,0.358-0.406,0.351c0,0-1.057-0.059-1.363-0.059l0.194-1.893c0.018-0.199,0.2-0.356,0.404-0.345L50.564,33.182z
		 M58.046,34.474c-0.184,0.083-0.337-0.012-0.337-0.213l-0.061-1.593c-0.006-0.205,0.129-0.413,0.304-0.466
		c0.176-0.053,0.59-0.04,0.6,0.162l0.061,1.447c0,0.198-0.153,0.436-0.337,0.52L58.046,34.474z M38.219,12.035
		c-0.083,0.188-0.292,0.274-0.467,0.192c-0.171-0.077-0.604-0.361-0.496-0.53l0.414-0.728c0.094-0.177,0.298-0.282,0.451-0.23
		c0.155,0.056,0.494,0.374,0.414,0.559L38.219,12.035z M45.483,14.409c0.2,0.038,0.304-0.086,0.228-0.275l-0.427-1.044
		c-0.077-0.184-0.257-0.364-0.398-0.391c-0.139-0.025-0.477,0.06-0.41,0.253l0.347,1.019c0.059,0.191,0.253,0.37,0.417,0.392
		C45.407,14.382,45.483,14.409,45.483,14.409z M43.615,14.098c0.188,0.042,0.316-0.085,0.276-0.282l-0.231-0.944
		c-0.045-0.199-0.2-0.392-0.349-0.429c-0.151-0.038-0.479,0.018-0.453,0.221l0.116,0.927C43.005,13.795,43.422,14.056,43.615,14.098
		z M41.715,13.614c0.184,0.063,0.331-0.053,0.321-0.256l-0.014-0.909c-0.004-0.2-0.131-0.404-0.292-0.447
		c-0.149-0.043-0.586,0.01-0.604,0.214l-0.1,0.84C41.017,13.261,41.534,13.554,41.715,13.614z M39.162,12.398
		c-0.059,0.194,0.014,0.403,0.188,0.464c0.163,0.064,0.711,0.1,0.749-0.099l0.143-0.779c0.047-0.202-0.047-0.412-0.204-0.475
		c-0.161-0.062-0.57-0.034-0.639,0.16L39.162,12.398z M28.485,4.549c-0.004-0.094,0.161-0.174,0.361-0.179l1.529-0.016
		c0.202-0.001,0.371,0.055,0.371,0.131c0,0.072-0.168,0.217-0.371,0.226l-1.516,0.063C28.655,4.789,28.485,4.645,28.485,4.549z
		 M32.365,2.691c0.185,0.042,0.222,0.093,0.084,0.118c-0.139,0.02-0.498,0.013-0.698-0.024L31.16,2.679
		c-0.198-0.026-0.198-0.063,0.004-0.083l0.127-0.01l0.355-0.035C31.689,2.546,32.181,2.653,32.365,2.691z M31.612,3.105
		c-0.061,0.036-0.28,0.046-0.484,0.025l-1.562-0.162c0.086-0.051,0.125-0.061,0.125-0.061c0.19-0.063,0.514-0.098,0.718-0.083
		l1.072,0.108C31.683,2.955,31.675,3.073,31.612,3.105z M30.899,3.316c0.204,0.022,0.339,0.062,0.306,0.092
		c-0.031,0.031-0.326,0.177-0.527,0.161l-1.371-0.096c-0.198-0.017-0.296-0.096-0.216-0.178c0.083-0.084,0.32-0.141,0.52-0.129
		L30.899,3.316z M30.53,3.802c0.198,0.003,0.335,0.056,0.294,0.116c-0.041,0.058-0.241,0.177-0.445,0.174L28.934,4.04
		c-0.204,0.004-0.328-0.077-0.285-0.18L30.53,3.802z M30.965,5.437l-1.869,0.192c-0.204,0.021-0.406-0.041-0.451-0.133
		c-0.047-0.094,0.084-0.259,0.285-0.282c0,0,1.211-0.113,1.894-0.113C30.824,5.101,30.924,5.34,30.965,5.437z M30.801,5.875
		c0.198-0.029,0.416,0.006,0.475,0.075c0.061,0.073,0.057,0.303-0.144,0.338L29.74,6.503c-0.2,0.04-0.408,0.016-0.457-0.046
		c-0.051-0.06-0.074-0.356,0.128-0.386L30.801,5.875z M30.312,7.479c-0.194,0.062-0.424,0.033-0.512-0.059
		c-0.086-0.092-0.141-0.411,0.057-0.455l1.302-0.296c0.198-0.049,0.404-0.032,0.46,0.027c0.057,0.06,0.086,0.349-0.11,0.407
		L30.312,7.479z M31.487,8.468c-0.19,0.082-0.417,0.082-0.518,0.003c-0.096-0.074-0.3-0.403-0.104-0.471l1.163-0.42
		c0.194-0.071,0.429-0.068,0.523,0.004c0.094,0.069,0.245,0.344,0.053,0.42L31.487,8.468z M32.961,9.398
		c-0.17,0.107-0.333,0.21-0.351,0.232c-0.02,0.021-0.168-0.062-0.333-0.187L32.071,9.31c-0.167-0.113-0.157-0.28,0.025-0.374
		l1.063-0.514c0.182-0.087,0.451-0.08,0.586,0.016c0.146,0.094,0.265,0.337,0.09,0.441L32.961,9.398z M34.507,10.399
		c-0.151,0.136-0.424,0.158-0.592,0.055l-0.204-0.167c-0.176-0.1-0.188-0.28-0.023-0.403l0.804-0.556
		c0.165-0.114,0.434-0.137,0.598-0.046c0.165,0.092,0.32,0.349,0.167,0.484L34.507,10.399z M36.293,11.265
		c-0.124,0.166-0.369,0.215-0.551,0.12c0,0-0.538-0.293-0.61-0.293l0.878-0.929c0.141-0.148,0.38-0.203,0.537-0.122
		c0.159,0.08,0.41,0.384,0.29,0.548L36.293,11.265z M47.531,14.625c0,0-0.602-0.073-0.83-0.073l-0.676-1.394
		c-0.09-0.188-0.022-0.333,0.153-0.333c0.176,0,0.404,0.141,0.512,0.311C46.689,13.137,47.531,14.549,47.531,14.625z M48.968,14.566
		c-0.074,0-0.657,0.05-0.657,0.05c0-0.076-0.955-1.495-0.955-1.495c-0.11-0.166-0.11-0.304,0.006-0.299
		c0.12,0,0.463,0.138,0.577,0.303L48.968,14.566z M49.966,14.381c-0.202,0.043-0.462-0.051-0.584-0.213l-0.876-1.134
		c-0.13-0.158-0.165-0.306-0.079-0.327c0.083-0.021,0.431,0.024,0.557,0.183c0,0,1.124,1.437,1.204,1.437L49.966,14.381z
		 M50.956,14.043c-0.18,0.076-0.427,0.004-0.557-0.15l-0.953-1.087c-0.129-0.154-0.186-0.305-0.12-0.331
		c0.071-0.027,0.337,0.006,0.48,0.152l1.28,1.326L50.956,14.043z M50.072,12.406c-0.143-0.141-0.167-0.332-0.051-0.422l1.402,1.188
		c0.145,0.143,0.222,0.311,0.165,0.382c-0.062,0.067-0.298,0.078-0.445-0.067L50.072,12.406z M50.462,11.872
		c-0.153-0.141-0.249-0.286-0.219-0.332c0.033-0.045,0.219-0.038,0.382,0.09l1.367,1.121v0.151
		c-0.071,0.132-0.245,0.128-0.393-0.009L50.462,11.872z M50.682,11.356c-0.161-0.125-0.286-0.282-0.282-0.356
		c0.008-0.072,0.066-0.104,0.233,0.02l0.996,0.752c0.161,0.121,0.308,0.307,0.321,0.415c0.01,0.108-0.106,0.085-0.261-0.04
		L50.682,11.356z M50.564,10.697c-0.167-0.114-0.347-0.347-0.402-0.515l-0.055-0.141c0,0,1.369,0.97,1.432,1.051
		c0.062,0.086,0.302,0.455,0.302,0.53C51.84,11.547,50.564,10.697,50.564,10.697z M50.113,9.871
		c-0.167-0.113-0.337-0.253-0.378-0.317c-0.043-0.064-0.016-0.171,0.155-0.055l0.743,0.487c0.165,0.115,0.39,0.353,0.494,0.523
		c0,0,0.039,0.059,0.112,0.136C51.166,10.568,50.113,9.871,50.113,9.871z"/>
</g>
</svg>
